simulation/qsim/Processador.msim.vcd
$comment
	File created using the following command:
		vcd file Processador.msim.vcd -direction
$end
$date
	Sat Sep 02 20:07:55 2023
$end
$version
	ModelSim Version 2020.1
$end
$timescale
	1ps
$end

$scope module ULA_vlg_vec_tst $end
$var reg 32 ! In1 [31:0] $end
$var reg 32 " In2 [31:0] $end
$var reg 4 # OP [3:0] $end
$var wire 1 $ result [31] $end
$var wire 1 % result [30] $end
$var wire 1 & result [29] $end
$var wire 1 ' result [28] $end
$var wire 1 ( result [27] $end
$var wire 1 ) result [26] $end
$var wire 1 * result [25] $end
$var wire 1 + result [24] $end
$var wire 1 , result [23] $end
$var wire 1 - result [22] $end
$var wire 1 . result [21] $end
$var wire 1 / result [20] $end
$var wire 1 0 result [19] $end
$var wire 1 1 result [18] $end
$var wire 1 2 result [17] $end
$var wire 1 3 result [16] $end
$var wire 1 4 result [15] $end
$var wire 1 5 result [14] $end
$var wire 1 6 result [13] $end
$var wire 1 7 result [12] $end
$var wire 1 8 result [11] $end
$var wire 1 9 result [10] $end
$var wire 1 : result [9] $end
$var wire 1 ; result [8] $end
$var wire 1 < result [7] $end
$var wire 1 = result [6] $end
$var wire 1 > result [5] $end
$var wire 1 ? result [4] $end
$var wire 1 @ result [3] $end
$var wire 1 A result [2] $end
$var wire 1 B result [1] $end
$var wire 1 C result [0] $end
$var wire 1 D zeroFlag $end

$scope module i1 $end
$var wire 1 E gnd $end
$var wire 1 F vcc $end
$var wire 1 G unknown $end
$var tri1 1 H devclrn $end
$var tri1 1 I devpor $end
$var tri1 1 J devoe $end
$var wire 1 K result[0]~output_o $end
$var wire 1 L result[1]~output_o $end
$var wire 1 M result[2]~output_o $end
$var wire 1 N result[3]~output_o $end
$var wire 1 O result[4]~output_o $end
$var wire 1 P result[5]~output_o $end
$var wire 1 Q result[6]~output_o $end
$var wire 1 R result[7]~output_o $end
$var wire 1 S result[8]~output_o $end
$var wire 1 T result[9]~output_o $end
$var wire 1 U result[10]~output_o $end
$var wire 1 V result[11]~output_o $end
$var wire 1 W result[12]~output_o $end
$var wire 1 X result[13]~output_o $end
$var wire 1 Y result[14]~output_o $end
$var wire 1 Z result[15]~output_o $end
$var wire 1 [ result[16]~output_o $end
$var wire 1 \ result[17]~output_o $end
$var wire 1 ] result[18]~output_o $end
$var wire 1 ^ result[19]~output_o $end
$var wire 1 _ result[20]~output_o $end
$var wire 1 ` result[21]~output_o $end
$var wire 1 a result[22]~output_o $end
$var wire 1 b result[23]~output_o $end
$var wire 1 c result[24]~output_o $end
$var wire 1 d result[25]~output_o $end
$var wire 1 e result[26]~output_o $end
$var wire 1 f result[27]~output_o $end
$var wire 1 g result[28]~output_o $end
$var wire 1 h result[29]~output_o $end
$var wire 1 i result[30]~output_o $end
$var wire 1 j result[31]~output_o $end
$var wire 1 k zeroFlag~output_o $end
$var wire 1 l In2[0]~input_o $end
$var wire 1 m In1[0]~input_o $end
$var wire 1 n OP[2]~input_o $end
$var wire 1 o Add0~130_cout $end
$var wire 1 p Add0~1_sumout $end
$var wire 1 q OP[3]~input_o $end
$var wire 1 r OP[1]~input_o $end
$var wire 1 s OP[0]~input_o $end
$var wire 1 t Mux31~8_combout $end
$var wire 1 u In1[4]~input_o $end
$var wire 1 v In2[4]~input_o $end
$var wire 1 w In1[7]~input_o $end
$var wire 1 x In2[7]~input_o $end
$var wire 1 y In1[6]~input_o $end
$var wire 1 z In2[6]~input_o $end
$var wire 1 { In1[5]~input_o $end
$var wire 1 | In2[5]~input_o $end
$var wire 1 } LessThan0~0_combout $end
$var wire 1 ~ In1[1]~input_o $end
$var wire 1 !! In2[1]~input_o $end
$var wire 1 "! LessThan0~1_combout $end
$var wire 1 #! In1[3]~input_o $end
$var wire 1 $! In2[3]~input_o $end
$var wire 1 %! In1[2]~input_o $end
$var wire 1 &! In2[2]~input_o $end
$var wire 1 '! LessThan0~2_combout $end
$var wire 1 (! LessThan0~3_combout $end
$var wire 1 )! LessThan0~4_combout $end
$var wire 1 *! LessThan0~5_combout $end
$var wire 1 +! LessThan0~6_combout $end
$var wire 1 ,! In1[14]~input_o $end
$var wire 1 -! In2[14]~input_o $end
$var wire 1 .! In1[13]~input_o $end
$var wire 1 /! In2[13]~input_o $end
$var wire 1 0! In1[12]~input_o $end
$var wire 1 1! In2[12]~input_o $end
$var wire 1 2! LessThan0~7_combout $end
$var wire 1 3! In1[11]~input_o $end
$var wire 1 4! In2[11]~input_o $end
$var wire 1 5! LessThan0~8_combout $end
$var wire 1 6! In1[9]~input_o $end
$var wire 1 7! In2[9]~input_o $end
$var wire 1 8! In1[10]~input_o $end
$var wire 1 9! In2[10]~input_o $end
$var wire 1 :! LessThan0~9_combout $end
$var wire 1 ;! In1[8]~input_o $end
$var wire 1 <! In2[8]~input_o $end
$var wire 1 =! LessThan0~10_combout $end
$var wire 1 >! LessThan0~11_combout $end
$var wire 1 ?! LessThan0~12_combout $end
$var wire 1 @! LessThan0~13_combout $end
$var wire 1 A! LessThan0~14_combout $end
$var wire 1 B! LessThan0~15_combout $end
$var wire 1 C! In1[18]~input_o $end
$var wire 1 D! In2[18]~input_o $end
$var wire 1 E! In1[21]~input_o $end
$var wire 1 F! In2[21]~input_o $end
$var wire 1 G! In1[20]~input_o $end
$var wire 1 H! In2[20]~input_o $end
$var wire 1 I! In1[19]~input_o $end
$var wire 1 J! In2[19]~input_o $end
$var wire 1 K! LessThan0~16_combout $end
$var wire 1 L! In1[17]~input_o $end
$var wire 1 M! In2[17]~input_o $end
$var wire 1 N! LessThan0~17_combout $end
$var wire 1 O! In1[16]~input_o $end
$var wire 1 P! In2[16]~input_o $end
$var wire 1 Q! LessThan0~18_combout $end
$var wire 1 R! In1[15]~input_o $end
$var wire 1 S! In2[15]~input_o $end
$var wire 1 T! LessThan0~19_combout $end
$var wire 1 U! LessThan0~20_combout $end
$var wire 1 V! LessThan0~21_combout $end
$var wire 1 W! LessThan0~22_combout $end
$var wire 1 X! LessThan0~23_combout $end
$var wire 1 Y! LessThan0~24_combout $end
$var wire 1 Z! LessThan0~25_combout $end
$var wire 1 [! In1[25]~input_o $end
$var wire 1 \! In2[25]~input_o $end
$var wire 1 ]! In1[28]~input_o $end
$var wire 1 ^! In2[28]~input_o $end
$var wire 1 _! In1[27]~input_o $end
$var wire 1 `! In2[27]~input_o $end
$var wire 1 a! In1[26]~input_o $end
$var wire 1 b! In2[26]~input_o $end
$var wire 1 c! LessThan0~26_combout $end
$var wire 1 d! In1[24]~input_o $end
$var wire 1 e! In2[24]~input_o $end
$var wire 1 f! LessThan0~27_combout $end
$var wire 1 g! In1[23]~input_o $end
$var wire 1 h! In2[23]~input_o $end
$var wire 1 i! LessThan0~28_combout $end
$var wire 1 j! In1[22]~input_o $end
$var wire 1 k! In2[22]~input_o $end
$var wire 1 l! LessThan0~29_combout $end
$var wire 1 m! LessThan0~30_combout $end
$var wire 1 n! LessThan0~31_combout $end
$var wire 1 o! LessThan0~32_combout $end
$var wire 1 p! LessThan0~33_combout $end
$var wire 1 q! LessThan0~34_combout $end
$var wire 1 r! In1[29]~input_o $end
$var wire 1 s! In2[29]~input_o $end
$var wire 1 t! In1[31]~input_o $end
$var wire 1 u! In2[31]~input_o $end
$var wire 1 v! In1[30]~input_o $end
$var wire 1 w! In2[30]~input_o $end
$var wire 1 x! Mux31~0_combout $end
$var wire 1 y! Mux31~1_combout $end
$var wire 1 z! Mux31~2_combout $end
$var wire 1 {! Mux31~3_combout $end
$var wire 1 |! Mux31~4_combout $end
$var wire 1 }! Mux31~5_combout $end
$var wire 1 ~! Mux31~6_combout $end
$var wire 1 !" Mux31~7_combout $end
$var wire 1 "" Add0~2 $end
$var wire 1 #" Add0~5_sumout $end
$var wire 1 $" Mux30~0_combout $end
$var wire 1 %" Mux30~1_combout $end
$var wire 1 &" Mux30~2_combout $end
$var wire 1 '" Add0~6 $end
$var wire 1 (" Add0~9_sumout $end
$var wire 1 )" Mux29~0_combout $end
$var wire 1 *" Mux29~1_combout $end
$var wire 1 +" Add0~10 $end
$var wire 1 ," Add0~13_sumout $end
$var wire 1 -" Mux28~0_combout $end
$var wire 1 ." Mux28~1_combout $end
$var wire 1 /" Add0~14 $end
$var wire 1 0" Add0~17_sumout $end
$var wire 1 1" Mux27~0_combout $end
$var wire 1 2" Mux27~1_combout $end
$var wire 1 3" Add0~18 $end
$var wire 1 4" Add0~21_sumout $end
$var wire 1 5" Mux26~0_combout $end
$var wire 1 6" Mux26~1_combout $end
$var wire 1 7" Add0~22 $end
$var wire 1 8" Add0~25_sumout $end
$var wire 1 9" Mux25~0_combout $end
$var wire 1 :" Mux25~1_combout $end
$var wire 1 ;" Add0~26 $end
$var wire 1 <" Add0~29_sumout $end
$var wire 1 =" Mux24~0_combout $end
$var wire 1 >" Mux24~1_combout $end
$var wire 1 ?" Add0~30 $end
$var wire 1 @" Add0~33_sumout $end
$var wire 1 A" Mux23~0_combout $end
$var wire 1 B" Mux23~1_combout $end
$var wire 1 C" Add0~34 $end
$var wire 1 D" Add0~37_sumout $end
$var wire 1 E" Mux22~0_combout $end
$var wire 1 F" Mux22~1_combout $end
$var wire 1 G" Add0~38 $end
$var wire 1 H" Add0~41_sumout $end
$var wire 1 I" Mux21~0_combout $end
$var wire 1 J" Mux21~1_combout $end
$var wire 1 K" Add0~42 $end
$var wire 1 L" Add0~45_sumout $end
$var wire 1 M" Mux20~0_combout $end
$var wire 1 N" Mux20~1_combout $end
$var wire 1 O" Add0~46 $end
$var wire 1 P" Add0~49_sumout $end
$var wire 1 Q" Mux19~0_combout $end
$var wire 1 R" Mux19~1_combout $end
$var wire 1 S" Add0~50 $end
$var wire 1 T" Add0~53_sumout $end
$var wire 1 U" Mux18~0_combout $end
$var wire 1 V" Mux18~1_combout $end
$var wire 1 W" Add0~54 $end
$var wire 1 X" Add0~57_sumout $end
$var wire 1 Y" Mux17~0_combout $end
$var wire 1 Z" Mux17~1_combout $end
$var wire 1 [" Add0~58 $end
$var wire 1 \" Add0~61_sumout $end
$var wire 1 ]" Mux16~0_combout $end
$var wire 1 ^" Mux16~1_combout $end
$var wire 1 _" Add0~62 $end
$var wire 1 `" Add0~65_sumout $end
$var wire 1 a" Mux15~0_combout $end
$var wire 1 b" Mux15~1_combout $end
$var wire 1 c" Add0~66 $end
$var wire 1 d" Add0~69_sumout $end
$var wire 1 e" Mux14~0_combout $end
$var wire 1 f" Mux14~1_combout $end
$var wire 1 g" Add0~70 $end
$var wire 1 h" Add0~73_sumout $end
$var wire 1 i" Mux13~0_combout $end
$var wire 1 j" Mux13~1_combout $end
$var wire 1 k" Add0~74 $end
$var wire 1 l" Add0~77_sumout $end
$var wire 1 m" Mux12~0_combout $end
$var wire 1 n" Mux12~1_combout $end
$var wire 1 o" Add0~78 $end
$var wire 1 p" Add0~81_sumout $end
$var wire 1 q" Mux11~0_combout $end
$var wire 1 r" Mux11~1_combout $end
$var wire 1 s" Add0~82 $end
$var wire 1 t" Add0~85_sumout $end
$var wire 1 u" Mux30~3_combout $end
$var wire 1 v" Mux30~4_combout $end
$var wire 1 w" Mux10~0_combout $end
$var wire 1 x" Mux10~1_combout $end
$var wire 1 y" Add0~86 $end
$var wire 1 z" Add0~89_sumout $end
$var wire 1 {" Mux9~0_combout $end
$var wire 1 |" Mux9~1_combout $end
$var wire 1 }" Add0~90 $end
$var wire 1 ~" Add0~93_sumout $end
$var wire 1 !# Mux8~0_combout $end
$var wire 1 "# Mux8~1_combout $end
$var wire 1 ## Add0~94 $end
$var wire 1 $# Add0~97_sumout $end
$var wire 1 %# Mux7~0_combout $end
$var wire 1 &# Mux7~1_combout $end
$var wire 1 '# Add0~98 $end
$var wire 1 (# Add0~101_sumout $end
$var wire 1 )# Mux6~0_combout $end
$var wire 1 *# Mux6~1_combout $end
$var wire 1 +# Add0~102 $end
$var wire 1 ,# Add0~105_sumout $end
$var wire 1 -# Mux5~0_combout $end
$var wire 1 .# Mux5~1_combout $end
$var wire 1 /# Add0~106 $end
$var wire 1 0# Add0~109_sumout $end
$var wire 1 1# Mux4~0_combout $end
$var wire 1 2# Mux4~1_combout $end
$var wire 1 3# Add0~110 $end
$var wire 1 4# Add0~113_sumout $end
$var wire 1 5# Mux3~0_combout $end
$var wire 1 6# Mux3~1_combout $end
$var wire 1 7# Add0~114 $end
$var wire 1 8# Add0~117_sumout $end
$var wire 1 9# Mux2~0_combout $end
$var wire 1 :# Mux2~1_combout $end
$var wire 1 ;# Add0~118 $end
$var wire 1 <# Add0~121_sumout $end
$var wire 1 =# Mux1~0_combout $end
$var wire 1 ># Mux1~1_combout $end
$var wire 1 ?# Add0~122 $end
$var wire 1 @# Add0~125_sumout $end
$var wire 1 A# Mux0~0_combout $end
$var wire 1 B# Mux0~1_combout $end
$var wire 1 C# Equal0~0_combout $end
$var wire 1 D# Equal0~1_combout $end
$var wire 1 E# Equal0~2_combout $end
$var wire 1 F# Equal0~3_combout $end
$var wire 1 G# Equal0~4_combout $end
$var wire 1 H# Equal0~5_combout $end
$var wire 1 I# Equal0~6_combout $end
$var wire 1 J# Equal0~7_combout $end
$var wire 1 K# Equal0~8_combout $end
$var wire 1 L# Equal0~9_combout $end
$var wire 1 M# Equal0~10_combout $end
$var wire 1 N# Equal0~11_combout $end
$var wire 1 O# Equal0~12_combout $end
$var wire 1 P# Equal0~13_combout $end
$var wire 1 Q# Equal0~14_combout $end
$var wire 1 R# Equal0~15_combout $end
$var wire 1 S# Equal0~16_combout $end
$upscope $end
$upscope $end
$enddefinitions $end
#0
$dumpvars
b1011111 !
b1100 "
b10 #
1C
1B
0A
1@
0?
1>
1=
0<
0;
0:
09
08
07
06
05
04
03
02
01
00
0/
0.
0-
0,
0+
0*
0)
0(
0'
0&
0%
0$
0D
0E
1F
xG
1H
1I
1J
1K
1L
0M
1N
0O
1P
1Q
0R
0S
0T
0U
0V
0W
0X
0Y
0Z
0[
0\
0]
0^
0_
0`
0a
0b
0c
0d
0e
0f
0g
0h
0i
0j
0k
0l
1m
0n
0o
1p
0q
1r
0s
1t
1u
0v
0w
0x
1y
0z
0{
0|
0}
1~
0!!
1"!
1#!
1$!
1%!
1&!
1'!
0(!
0)!
1*!
0+!
0,!
0-!
0.!
0/!
00!
01!
12!
03!
04!
05!
06!
07!
08!
09!
0:!
0;!
0<!
0=!
1>!
0?!
1@!
0A!
0B!
0C!
0D!
0E!
0F!
0G!
0H!
0I!
0J!
1K!
0L!
0M!
0N!
0O!
0P!
0Q!
0R!
0S!
0T!
1U!
1V!
1W!
0X!
1Y!
1Z!
0[!
0\!
0]!
0^!
0_!
0`!
0a!
0b!
1c!
0d!
0e!
0f!
0g!
0h!
0i!
0j!
0k!
0l!
1m!
1n!
0o!
1p!
1q!
0r!
0s!
0t!
0u!
0v!
0w!
1x!
1y!
0z!
0{!
1|!
0}!
0~!
1!"
0""
1#"
1$"
0%"
1&"
0'"
0("
0)"
0*"
1+"
1,"
0-"
1."
1/"
00"
01"
02"
13"
14"
05"
16"
07"
18"
09"
1:"
0;"
0<"
0="
0>"
0?"
0@"
0A"
0B"
0C"
0D"
0E"
0F"
0G"
0H"
0I"
0J"
0K"
0L"
0M"
0N"
0O"
0P"
0Q"
0R"
0S"
0T"
0U"
0V"
0W"
0X"
0Y"
0Z"
0["
0\"
0]"
0^"
0_"
0`"
0a"
0b"
0c"
0d"
0e"
0f"
0g"
0h"
0i"
0j"
0k"
0l"
0m"
0n"
0o"
0p"
0q"
0r"
0s"
0t"
0u"
0v"
1w"
0x"
0y"
0z"
1{"
0|"
0}"
0~"
1!#
0"#
0##
0$#
1%#
0&#
0'#
0(#
1)#
0*#
0+#
0,#
1-#
0.#
0/#
00#
11#
02#
03#
04#
15#
06#
07#
08#
19#
0:#
0;#
0<#
1=#
0>#
0?#
0@#
1A#
0B#
0C#
0D#
0E#
0F#
0G#
0H#
0I#
0J#
0K#
1L#
1M#
1N#
0O#
1P#
1Q#
1R#
0S#
$end
#140000
b101100 "
b100100 "
b100000 "
b100010 "
b100011 "
1l
1!!
0&!
0$!
1|
17"
04"
0,"
1(!
0'!
0+"
1("
1'"
0#"
0"!
1""
0p
1;"
08"
0/"
1,"
1+"
0("
1#"
0t
1F#
0&"
1*"
0."
06"
0P
0N
1M
0L
1<"
03"
10"
1/"
0,"
1G#
1O#
0F#
1I#
0B
1A
0@
0>
0!"
1&"
0*"
1."
0:"
0Q
1N
0M
1L
0K
07"
14"
13"
00"
1J#
0G#
1H#
0L#
0C
1B
0A
1@
0=
0."
12"
1>"
1R
1O
0N
0;"
18"
17"
04"
0M#
0H#
1K#
1F#
0I#
0@
1?
1<
02"
16"
1P
0O
0<"
1;"
08"
0J#
1G#
0N#
0?
1>
06"
1:"
1Q
0P
1<"
1H#
0K#
1I#
1L#
0>
1=
0:"
0>"
0R
0Q
1M#
1J#
0L#
0=
0<
1>"
1R
0M#
1K#
1N#
1<
0N#
#280000
b110 #
1n
1@#
1<#
18#
14#
10#
1,#
1(#
1$#
1~"
1z"
1t"
1p"
1l"
1h"
1d"
1`"
1\"
1X"
1T"
1P"
1L"
1H"
1D"
1@"
1?"
0<"
18"
07"
14"
10"
1,"
1("
0#"
0""
1p
1o
1C"
0@"
08"
0'"
1#"
1""
0p
1t
0F#
0I#
0P#
0G#
0J#
0Q#
0H#
0K#
0O#
0R#
0&"
1*"
1."
12"
16"
1:"
0>"
1B"
1F"
1J"
1N"
1R"
1V"
1Z"
1^"
1b"
1f"
1j"
1n"
1r"
1x"
1|"
1"#
1&#
1*#
1.#
12#
16#
1:#
1>#
1B#
1j
1i
1h
1g
1f
1e
1d
1c
1b
1a
1`
1_
1^
1]
1\
1[
1Z
1Y
1X
1W
1V
1U
1T
1S
0R
1Q
1P
1O
1N
1M
0L
1G"
0D"
0("
1'"
0#"
0t
1L#
0B
1A
1@
1?
1>
1=
0<
1;
1:
19
18
17
16
15
14
13
12
11
10
1/
1.
1-
1,
1+
1*
1)
1(
1'
1&
1%
1$
1!"
1&"
0:"
0B"
0S
0Q
1L
1K
1K"
0H"
1("
1C#
1C
1B
0=
0;
0!"
0&"
0*"
0F"
0T
0M
0L
0K
1O"
0L"
0C#
1P#
0C
0B
0A
0:
1*"
0J"
0U
1M
1S"
0P"
1A
09
0N"
0V
1W"
0T"
08
0R"
0W
1["
0X"
07
0V"
0X
1_"
0\"
06
0Z"
0Y
1c"
0`"
05
0^"
0Z
1g"
0d"
04
0b"
0[
1k"
0h"
03
0f"
0\
1o"
0l"
1M#
02
0j"
0]
1s"
0p"
01
0n"
0^
1y"
0t"
1Q#
00
0r"
0_
1}"
0z"
0/
0x"
0`
1##
0~"
0.
0|"
0a
1'#
0$#
0-
0"#
0b
1+#
0(#
0,
0&#
0c
1/#
0,#
0+
0*#
0d
13#
00#
0*
0.#
0e
17#
04#
0)
02#
0f
1;#
08#
1N#
0(
06#
0g
1?#
0<#
1O#
0'
0:#
0h
0@#
0&
0>#
0i
1R#
0%
0B#
0j
0$
#360000
b11 "
b1 "
b0 "
b10 #
0n
0l
0!!
0|
1"!
1@#
0?#
1<#
0;#
18#
07#
14#
03#
10#
0/#
1,#
0+#
1(#
0'#
1$#
0##
1~"
0}"
1z"
0y"
1t"
0s"
1p"
0o"
1l"
0k"
1h"
0g"
1d"
0c"
1`"
0_"
1\"
0["
1X"
0W"
1T"
0S"
1P"
0O"
1L"
0K"
1H"
0G"
1D"
0C"
1@"
0?"
1<"
0;"
18"
00"
0,"
0("
0o
0@#
0<#
08#
04#
00#
0,#
0(#
0$#
0~"
0z"
0t"
0p"
0l"
0h"
0d"
0`"
0\"
0X"
0T"
0P"
0L"
0H"
0D"
0@"
0<"
0""
1p
1C#
1F#
0L#
0P#
0M#
0Q#
0N#
0O#
0R#
0*"
0."
02"
1:"
1>"
1B"
1F"
1J"
1N"
1R"
1V"
1Z"
1^"
1b"
1f"
1j"
1n"
1r"
1x"
1|"
1"#
1&#
1*#
1.#
12#
16#
1:#
1>#
1B#
1j
1i
1h
1g
1f
1e
1d
1c
1b
1a
1`
1_
1^
1]
1\
1[
1Z
1Y
1X
1W
1V
1U
1T
1S
1R
1Q
0O
0N
0M
0'"
1#"
1G#
1D#
1t
1L#
1P#
1O#
0A
0@
0?
1=
1<
1;
1:
19
18
17
16
15
14
13
12
11
10
1/
1.
1-
1,
1+
1*
1)
1(
1'
1&
1%
1$
0>"
0B"
0F"
0J"
0N"
0R"
0V"
0Z"
0^"
0b"
0f"
0j"
0n"
0r"
0x"
0|"
0"#
0&#
0*#
0.#
02#
06#
0:#
0>#
0B#
0j
0i
0h
0g
0f
0e
0d
0c
0b
0a
0`
0_
0^
0]
0\
0[
0Z
0Y
0X
0W
0V
0U
0T
0S
0R
0+"
1("
1Q#
1M#
0O#
1E#
1H#
0C#
0<
0;
0:
09
08
07
06
05
04
03
02
01
00
0/
0.
0-
0,
0+
0*
0)
0(
0'
0&
0%
0$
1!"
1&"
1L
1K
0/"
1,"
0D#
1N#
1R#
1C
1B
1*"
1M
03"
10"
0E#
0F#
1A
1."
1N
04"
0G#
1@
12"
1O
0H#
1?
06"
0P
0>
#400000
b11111 !
b1111 !
b111 !
b11 !
b1 !
b0 !
0m
0~
0%!
0#!
0u
0y
08"
0*!
1}
00"
0,"
0(!
1'!
0("
0#"
0"!
0p
0t
1C#
1F#
1+!
1I#
0&"
0*"
0."
02"
0:"
0Q
0O
0N
0M
0L
1J#
0V!
1G#
1D#
1O#
0B
0A
0@
0?
0=
0!"
0K
1E#
1H#
1}!
1K#
0C
1S#
1k
1D
#440000
b100000 !
b10000 "
b11 #
b110000 "
b110010 "
b111 #
b1100000 !
b1100100 !
1s
1n
1!!
1v
1|
1%!
1{
1y
1;"
1*!
0}
14"
1+"
1(!
0'!
1@#
1<#
18#
14#
10#
1,#
1(#
1$#
1~"
1z"
1t"
1p"
1l"
1h"
1d"
1`"
1\"
1X"
1T"
1P"
1L"
1H"
1D"
1@"
1<"
1,"
1~!
1p
1o
0$"
1?"
0<"
1/"
0,"
1""
0p
0+!
1C"
0@"
10"
1#"
1V!
1G"
0D"
0}!
1K"
0H"
0O#
1!"
1K
1O"
0L"
1C
0S#
0k
1S"
0P"
0D
1W"
0T"
1["
0X"
1_"
0\"
1c"
0`"
1g"
0d"
1k"
0h"
1o"
0l"
1s"
0p"
1y"
0t"
1}"
0z"
1##
0~"
1'#
0$#
1+#
0(#
1/#
0,#
13#
00#
17#
04#
1;#
08#
1?#
0<#
0@#
#500000
b1110100 !
b1111100 !
b1111110 !
b1011110 !
b11110 !
1~
1#!
1u
0{
0y
0;"
18"
0*!
04"
13"
00"
1,"
1'"
0#"
0?"
1<"
14"
1("
1+!
0C"
1@"
0V!
0G"
1D"
1}!
0K"
1H"
1O#
0!"
0K
0O"
1L"
0C
1S#
1k
0S"
1P"
1D
0W"
1T"
0["
1X"
0_"
1\"
0c"
1`"
0g"
1d"
0k"
1h"
0o"
1l"
0s"
1p"
0y"
1t"
0}"
1z"
0##
1~"
0'#
1$#
0+#
1(#
0/#
1,#
03#
10#
07#
14#
0;#
18#
0?#
1<#
1@#
#560000
b11111 !
b11011 !
b10011 !
b10001 !
b110001 !
1m
0~
0%!
0#!
1{
17"
04"
1}
0,"
0(!
1'!
0("
0'"
1#"
1p
1;"
08"
0+"
1("
1?"
0<"
0/"
1,"
1C"
0@"
03"
10"
1G"
0D"
07"
14"
1K"
0H"
0;"
18"
1O"
0L"
0?"
1<"
1S"
0P"
0C"
1@"
1W"
0T"
0G"
1D"
1["
0X"
0K"
1H"
1_"
0\"
0O"
1L"
1c"
0`"
0S"
1P"
1g"
0d"
0W"
1T"
1k"
0h"
0["
1X"
1o"
0l"
0_"
1\"
1s"
0p"
0c"
1`"
1y"
0t"
0g"
1d"
1}"
0z"
0k"
1h"
1##
0~"
0o"
1l"
1'#
0$#
0s"
1p"
1+#
0(#
0y"
1t"
1/#
0,#
0}"
1z"
13#
00#
0##
1~"
17#
04#
0'#
1$#
1;#
08#
0+#
1(#
1?#
0<#
0/#
1,#
0@#
03#
10#
07#
14#
0;#
18#
0?#
1<#
1@#
#620000
b110000 !
b110010 !
0m
1~
1'"
0#"
0p
1+"
0("
1/"
0,"
13"
00"
17"
04"
1;"
08"
1?"
0<"
1C"
0@"
1G"
0D"
1K"
0H"
1O"
0L"
1S"
0P"
1W"
0T"
1["
0X"
1_"
0\"
1c"
0`"
1g"
0d"
1k"
0h"
1o"
0l"
1s"
0p"
1y"
0t"
1}"
0z"
1##
0~"
1'#
0$#
1+#
0(#
1/#
0,#
13#
00#
17#
04#
1;#
08#
1?#
0<#
0@#
#660000
b110011 !
1m
1"!
1p
1)!
1V!
0}!
0O#
1!"
1K
1C
0S#
0k
0D
#720000
b100011 !
b11 !
b1 !
b0 !
0m
0~
0u
0{
07"
14"
0}
03"
10"
0)!
0'"
1#"
0"!
0p
0;"
18"
04"
0+"
1("
0V!
0?"
1<"
0/"
1,"
1}!
0C"
1@"
00"
1O#
0!"
0K
0G"
1D"
0C
1S#
1k
0K"
1H"
1D
0O"
1L"
0S"
1P"
0W"
1T"
0["
1X"
0_"
1\"
0c"
1`"
0g"
1d"
0k"
1h"
0o"
1l"
0s"
1p"
0y"
1t"
0}"
1z"
0##
1~"
0'#
1$#
0+#
1(#
0/#
1,#
03#
10#
07#
14#
0;#
18#
0?#
1<#
1@#
#760000
b100010 "
b110 #
b10 "
b0 "
b10 #
0s
0n
0!!
0v
0|
1}
0@#
0<#
08#
04#
00#
0,#
0(#
0$#
0~"
0z"
0t"
0p"
0l"
0h"
0d"
0`"
0\"
0X"
0T"
0P"
0L"
0H"
0D"
0@"
0<"
08"
0,"
0("
0~!
0""
1p
0o
1$"
0#"
0p
0C#
1t
1&"
1L
0O#
0D#
0t
1C#
1B
1!"
0&"
0L
1K
1D#
1O#
0E#
1C
0B
0!"
0S#
0k
0K
1E#
0C
0D
1S#
1k
1D
