simulation/qsim/Processador.msim.vcd
$comment
	File created using the following command:
		vcd file Processador.msim.vcd -direction
$end
$date
	Mon Sep 04 21:06:07 2023
$end
$version
	ModelSim Version 2020.1
$end
$timescale
	1ps
$end

$scope module Top_Level_vlg_vec_tst $end
$var reg 1 ! Clk $end
$var reg 1 " Rst $end
$var wire 1 # Y [31] $end
$var wire 1 $ Y [30] $end
$var wire 1 % Y [29] $end
$var wire 1 & Y [28] $end
$var wire 1 ' Y [27] $end
$var wire 1 ( Y [26] $end
$var wire 1 ) Y [25] $end
$var wire 1 * Y [24] $end
$var wire 1 + Y [23] $end
$var wire 1 , Y [22] $end
$var wire 1 - Y [21] $end
$var wire 1 . Y [20] $end
$var wire 1 / Y [19] $end
$var wire 1 0 Y [18] $end
$var wire 1 1 Y [17] $end
$var wire 1 2 Y [16] $end
$var wire 1 3 Y [15] $end
$var wire 1 4 Y [14] $end
$var wire 1 5 Y [13] $end
$var wire 1 6 Y [12] $end
$var wire 1 7 Y [11] $end
$var wire 1 8 Y [10] $end
$var wire 1 9 Y [9] $end
$var wire 1 : Y [8] $end
$var wire 1 ; Y [7] $end
$var wire 1 < Y [6] $end
$var wire 1 = Y [5] $end
$var wire 1 > Y [4] $end
$var wire 1 ? Y [3] $end
$var wire 1 @ Y [2] $end
$var wire 1 A Y [1] $end
$var wire 1 B Y [0] $end
$var wire 1 C data_out [31] $end
$var wire 1 D data_out [30] $end
$var wire 1 E data_out [29] $end
$var wire 1 F data_out [28] $end
$var wire 1 G data_out [27] $end
$var wire 1 H data_out [26] $end
$var wire 1 I data_out [25] $end
$var wire 1 J data_out [24] $end
$var wire 1 K data_out [23] $end
$var wire 1 L data_out [22] $end
$var wire 1 M data_out [21] $end
$var wire 1 N data_out [20] $end
$var wire 1 O data_out [19] $end
$var wire 1 P data_out [18] $end
$var wire 1 Q data_out [17] $end
$var wire 1 R data_out [16] $end
$var wire 1 S data_out [15] $end
$var wire 1 T data_out [14] $end
$var wire 1 U data_out [13] $end
$var wire 1 V data_out [12] $end
$var wire 1 W data_out [11] $end
$var wire 1 X data_out [10] $end
$var wire 1 Y data_out [9] $end
$var wire 1 Z data_out [8] $end
$var wire 1 [ data_out [7] $end
$var wire 1 \ data_out [6] $end
$var wire 1 ] data_out [5] $end
$var wire 1 ^ data_out [4] $end
$var wire 1 _ data_out [3] $end
$var wire 1 ` data_out [2] $end
$var wire 1 a data_out [1] $end
$var wire 1 b data_out [0] $end
$var wire 1 c resultado [31] $end
$var wire 1 d resultado [30] $end
$var wire 1 e resultado [29] $end
$var wire 1 f resultado [28] $end
$var wire 1 g resultado [27] $end
$var wire 1 h resultado [26] $end
$var wire 1 i resultado [25] $end
$var wire 1 j resultado [24] $end
$var wire 1 k resultado [23] $end
$var wire 1 l resultado [22] $end
$var wire 1 m resultado [21] $end
$var wire 1 n resultado [20] $end
$var wire 1 o resultado [19] $end
$var wire 1 p resultado [18] $end
$var wire 1 q resultado [17] $end
$var wire 1 r resultado [16] $end
$var wire 1 s resultado [15] $end
$var wire 1 t resultado [14] $end
$var wire 1 u resultado [13] $end
$var wire 1 v resultado [12] $end
$var wire 1 w resultado [11] $end
$var wire 1 x resultado [10] $end
$var wire 1 y resultado [9] $end
$var wire 1 z resultado [8] $end
$var wire 1 { resultado [7] $end
$var wire 1 | resultado [6] $end
$var wire 1 } resultado [5] $end
$var wire 1 ~ resultado [4] $end
$var wire 1 !! resultado [3] $end
$var wire 1 "! resultado [2] $end
$var wire 1 #! resultado [1] $end
$var wire 1 $! resultado [0] $end

$scope module i1 $end
$var wire 1 %! gnd $end
$var wire 1 &! vcc $end
$var wire 1 '! unknown $end
$var tri1 1 (! devclrn $end
$var tri1 1 )! devpor $end
$var tri1 1 *! devoe $end
$var wire 1 +! Clk~input_o $end
$var wire 1 ,! Rst~input_o $end
$var wire 1 -! Y[0]~output_o $end
$var wire 1 .! Y[1]~output_o $end
$var wire 1 /! Y[2]~output_o $end
$var wire 1 0! Y[3]~output_o $end
$var wire 1 1! Y[4]~output_o $end
$var wire 1 2! Y[5]~output_o $end
$var wire 1 3! Y[6]~output_o $end
$var wire 1 4! Y[7]~output_o $end
$var wire 1 5! Y[8]~output_o $end
$var wire 1 6! Y[9]~output_o $end
$var wire 1 7! Y[10]~output_o $end
$var wire 1 8! Y[11]~output_o $end
$var wire 1 9! Y[12]~output_o $end
$var wire 1 :! Y[13]~output_o $end
$var wire 1 ;! Y[14]~output_o $end
$var wire 1 <! Y[15]~output_o $end
$var wire 1 =! Y[16]~output_o $end
$var wire 1 >! Y[17]~output_o $end
$var wire 1 ?! Y[18]~output_o $end
$var wire 1 @! Y[19]~output_o $end
$var wire 1 A! Y[20]~output_o $end
$var wire 1 B! Y[21]~output_o $end
$var wire 1 C! Y[22]~output_o $end
$var wire 1 D! Y[23]~output_o $end
$var wire 1 E! Y[24]~output_o $end
$var wire 1 F! Y[25]~output_o $end
$var wire 1 G! Y[26]~output_o $end
$var wire 1 H! Y[27]~output_o $end
$var wire 1 I! Y[28]~output_o $end
$var wire 1 J! Y[29]~output_o $end
$var wire 1 K! Y[30]~output_o $end
$var wire 1 L! Y[31]~output_o $end
$var wire 1 M! resultado[0]~output_o $end
$var wire 1 N! resultado[1]~output_o $end
$var wire 1 O! resultado[2]~output_o $end
$var wire 1 P! resultado[3]~output_o $end
$var wire 1 Q! resultado[4]~output_o $end
$var wire 1 R! resultado[5]~output_o $end
$var wire 1 S! resultado[6]~output_o $end
$var wire 1 T! resultado[7]~output_o $end
$var wire 1 U! resultado[8]~output_o $end
$var wire 1 V! resultado[9]~output_o $end
$var wire 1 W! resultado[10]~output_o $end
$var wire 1 X! resultado[11]~output_o $end
$var wire 1 Y! resultado[12]~output_o $end
$var wire 1 Z! resultado[13]~output_o $end
$var wire 1 [! resultado[14]~output_o $end
$var wire 1 \! resultado[15]~output_o $end
$var wire 1 ]! resultado[16]~output_o $end
$var wire 1 ^! resultado[17]~output_o $end
$var wire 1 _! resultado[18]~output_o $end
$var wire 1 `! resultado[19]~output_o $end
$var wire 1 a! resultado[20]~output_o $end
$var wire 1 b! resultado[21]~output_o $end
$var wire 1 c! resultado[22]~output_o $end
$var wire 1 d! resultado[23]~output_o $end
$var wire 1 e! resultado[24]~output_o $end
$var wire 1 f! resultado[25]~output_o $end
$var wire 1 g! resultado[26]~output_o $end
$var wire 1 h! resultado[27]~output_o $end
$var wire 1 i! resultado[28]~output_o $end
$var wire 1 j! resultado[29]~output_o $end
$var wire 1 k! resultado[30]~output_o $end
$var wire 1 l! resultado[31]~output_o $end
$var wire 1 m! data_out[0]~output_o $end
$var wire 1 n! data_out[1]~output_o $end
$var wire 1 o! data_out[2]~output_o $end
$var wire 1 p! data_out[3]~output_o $end
$var wire 1 q! data_out[4]~output_o $end
$var wire 1 r! data_out[5]~output_o $end
$var wire 1 s! data_out[6]~output_o $end
$var wire 1 t! data_out[7]~output_o $end
$var wire 1 u! data_out[8]~output_o $end
$var wire 1 v! data_out[9]~output_o $end
$var wire 1 w! data_out[10]~output_o $end
$var wire 1 x! data_out[11]~output_o $end
$var wire 1 y! data_out[12]~output_o $end
$var wire 1 z! data_out[13]~output_o $end
$var wire 1 {! data_out[14]~output_o $end
$var wire 1 |! data_out[15]~output_o $end
$var wire 1 }! data_out[16]~output_o $end
$var wire 1 ~! data_out[17]~output_o $end
$var wire 1 !" data_out[18]~output_o $end
$var wire 1 "" data_out[19]~output_o $end
$var wire 1 #" data_out[20]~output_o $end
$var wire 1 $" data_out[21]~output_o $end
$var wire 1 %" data_out[22]~output_o $end
$var wire 1 &" data_out[23]~output_o $end
$var wire 1 '" data_out[24]~output_o $end
$var wire 1 (" data_out[25]~output_o $end
$var wire 1 )" data_out[26]~output_o $end
$var wire 1 *" data_out[27]~output_o $end
$var wire 1 +" data_out[28]~output_o $end
$var wire 1 ," data_out[29]~output_o $end
$var wire 1 -" data_out[30]~output_o $end
$var wire 1 ." data_out[31]~output_o $end
$upscope $end
$upscope $end
$enddefinitions $end
#0
$dumpvars
0!
0"
1B
0A
0@
0?
0>
0=
0<
0;
0:
09
08
07
06
05
04
03
02
01
00
0/
0.
0-
0,
0+
0*
0)
0(
0'
0&
0%
0$
0#
0b
0a
0`
0_
0^
0]
0\
0[
0Z
0Y
0X
0W
0V
0U
0T
0S
0R
0Q
0P
0O
0N
0M
0L
0K
0J
0I
0H
0G
0F
0E
0D
0C
0$!
0#!
0"!
0!!
0~
0}
0|
0{
0z
0y
0x
0w
0v
0u
0t
0s
0r
0q
0p
0o
0n
0m
0l
0k
0j
0i
0h
0g
0f
0e
0d
0c
0%!
1&!
x'!
1(!
1)!
1*!
0+!
0,!
1-!
0.!
0/!
00!
01!
02!
03!
04!
05!
06!
07!
08!
09!
0:!
0;!
0<!
0=!
0>!
0?!
0@!
0A!
0B!
0C!
0D!
0E!
0F!
0G!
0H!
0I!
0J!
0K!
0L!
0M!
0N!
0O!
0P!
0Q!
0R!
0S!
0T!
0U!
0V!
0W!
0X!
0Y!
0Z!
0[!
0\!
0]!
0^!
0_!
0`!
0a!
0b!
0c!
0d!
0e!
0f!
0g!
0h!
0i!
0j!
0k!
0l!
0m!
0n!
0o!
0p!
0q!
0r!
0s!
0t!
0u!
0v!
0w!
0x!
0y!
0z!
0{!
0|!
0}!
0~!
0!"
0""
0#"
0$"
0%"
0&"
0'"
0("
0)"
0*"
0+"
0,"
0-"
0."
$end
#20000
1!
1+!
#40000
0!
0+!
#60000
1!
1+!
#80000
0!
0+!
#100000
1!
1+!
#120000
0!
0+!
#140000
1!
1+!
#160000
0!
0+!
#180000
1!
1+!
#200000
0!
0+!
#220000
1!
1+!
#240000
0!
0+!
#260000
1!
1+!
#280000
0!
0+!
#300000
1!
1+!
#320000
0!
0+!
#340000
1!
1+!
#360000
0!
0+!
#380000
1!
1+!
#400000
0!
0+!
#420000
1!
1+!
#440000
0!
0+!
#460000
1!
1+!
#480000
0!
0+!
#500000
1!
1+!
#520000
0!
0+!
#540000
1!
1+!
#560000
0!
0+!
#580000
1!
1+!
#600000
0!
0+!
#620000
1!
1+!
#640000
0!
0+!
#660000
1!
1+!
#680000
0!
0+!
#700000
1!
1+!
#720000
0!
0+!
#740000
1!
1+!
#760000
0!
0+!
#780000
1!
1+!
#800000
0!
0+!
#820000
1!
1+!
#840000
0!
0+!
#860000
1!
1+!
#880000
0!
0+!
#900000
1!
1+!
#920000
0!
0+!
#940000
1!
1+!
#960000
0!
0+!
#980000
1!
1+!
